0	1.00000002208367
0.001001001001001	1.00000001320665
0.002002002002002	1.00000000578803
0.003003003003003	0.999999999761936
0.004004004004004	0.999999995062529
0.00500500500500501	0.999999991623948
0.00600600600600601	0.999999989380339
0.00700700700700701	0.999999988265845
0.00800800800800801	0.999999988214612
0.00900900900900901	0.999999989160784
0.01001001001001	0.999999991038506
0.011011011011011	0.999999993781923
0.012012012012012	0.999999997325179
0.013013013013013	1.00000000160242
0.014014014014014	1.00000000654779
0.015015015015015	1.00000001209543
0.016016016016016	1.00000001817949
0.017017017017017	1.00000002473412
0.018018018018018	1.00000003169345
0.019019019019019	1.00000003899163
0.02002002002002	1.0000000273945
0.021021021021021	1.00000000479878
0.022022022022022	0.999999986867422
0.023023023023023	0.999999973323062
0.024024024024024	0.999999963888358
0.025025025025025	0.999999958285965
0.026026026026026	0.999999956238537
0.027027027027027	0.999999957468726
0.028028028028028	0.999999961699187
0.029029029029029	0.999999968652573
0.03003003003003	0.99999997805154
0.031031031031031	0.999999989618739
0.032032032032032	1.00000000307683
0.033033033033033	1.00000001814845
0.034034034034034	1.00000003455628
0.035035035035035	1.00000005202295
0.036036036036036	1.00000007027112
0.037037037037037	1.00000008902345
0.038038038038038	1.00000010800259
0.039039039039039	1.00000012693119
0.04004004004004	1.00000007844367
0.041041041041041	1.0000000111763
0.042042042042042	0.999999956651116
0.043043043043043	0.999999914308543
0.044044044044044	0.999999883589009
0.045045045045045	0.999999863932939
0.046046046046046	0.99999985478076
0.047047047047047	0.999999855572899
0.048048048048048	0.999999865749779
0.049049049049049	0.999999884751829
0.05005005005005	0.999999912019474
0.0510510510510511	0.999999946993142
0.0520520520520521	0.999999989113257
0.0530530530530531	1.00000003782024
0.0540540540540541	1.00000009255453
0.0550550550550551	1.00000015275655
0.0560560560560561	1.00000021786672
0.0570570570570571	1.00000028732546
0.0580580580580581	1.00000036057321
0.0590590590590591	1.00000043705039
0.0600600600600601	1.00000030381208
0.0610610610610611	1.00000011818778
0.0620620620620621	0.99999995636818
0.0630630630630631	0.999999818984865
0.0640640640640641	0.999999706669437
0.0650650650650651	0.999999620053493
0.0660660660660661	0.999999559768633
0.0670670670670671	0.999999526446454
0.0680680680680681	0.999999520718556
0.0690690690690691	0.999999543216537
0.0700700700700701	0.999999594571995
0.0710710710710711	0.999999675416529
0.0720720720720721	0.999999786381738
0.0730730730730731	0.999999928099219
0.0740740740740741	1.00000010120057
0.0750750750750751	1.0000003063174
0.0760760760760761	1.00000054408129
0.0770770770770771	1.00000081512384
0.0780780780780781	1.00000112007667
0.0790790790790791	1.00000145957136
0.0800800800800801	1.00000121538106
0.0810810810810811	1.00000082079217
0.0820820820820821	1.00000041509884
0.0830830830830831	1.00000001089998
0.0840840840840841	0.999999620794493
0.0850850850850851	0.999999257381307
0.0860860860860861	0.99999893325933
0.0870870870870871	0.999998661027475
0.0880880880880881	0.999998453284656
0.0890890890890891	0.999998322629786
0.0900900900900901	0.999998281661777
0.0910910910910911	0.999998342979545
0.0920920920920921	0.999998519182001
0.0930930930930931	0.999998822868058
0.0940940940940941	0.999999266636631
0.0950950950950951	0.999999863086632
0.0960960960960961	1.00000062481697
0.0970970970970971	1.00000156442657
0.0980980980980981	1.00000269451434
0.0990990990990991	1.00000402767918
0.1001001001001	1.00000414346138
0.101101101101101	1.00000390467902
0.102102102102102	1.00000332425791
0.103103103103103	1.00000246836442
0.104104104104104	1.00000140316492
0.105105105105105	1.00000019482579
0.106106106106106	0.999998909513401
0.107107107107107	0.999997613394118
0.108108108108108	0.999996372634317
0.109109109109109	0.999995253400369
0.11011011011011	0.999994321858647
0.111111111111111	0.999993644175524
0.112112112112112	0.99999328651737
0.113113113113113	0.999993315050559
0.114114114114114	0.999993795941461
0.115115115115115	0.99999479535645
0.116116116116116	0.999996379461897
0.117117117117117	0.999998614424175
0.118118118118118	1.00000156640966
0.119119119119119	1.00000530158471
0.12012012012012	1.00000840772902
0.121121121121121	1.00001098872744
0.122122122122122	1.00001207823916
0.123123123123123	1.00001184736242
0.124124124124124	1.00001046719551
0.125125125125125	1.00000810883668
0.126126126126126	1.00000494338421
0.127127127127127	1.00000114193636
0.128128128128128	0.999996875591404
0.129129129129129	0.999992315447599
0.13013013013013	0.999987632603217
0.131131131131131	0.999982998156523
0.132132132132132	0.999978583205786
0.133133133133133	0.999974558849271
0.134134134134134	0.999971096185247
0.135135135135135	0.999968366311979
0.136136136136136	0.999966540327735
0.137137137137137	0.999965789330781
0.138138138138138	0.999966284419385
0.139139139139139	0.999968196691813
0.14014014014014	0.999977070068476
0.141141141141141	0.999984597236005
0.142142142142142	0.999990204572297
0.143143143143143	0.999993627632499
0.144144144144144	0.999994601971759
0.145145145145145	0.999992863145225
0.146146146146146	0.999988146708045
0.147147147147147	0.999980188215365
0.148148148148148	0.999968723222335
0.149149149149149	0.999953487284101
0.15015015015015	0.999934215955812
0.151151151151151	0.999910644792614
0.152152152152152	0.999882509349657
0.153153153153153	0.999849545182087
0.154154154154154	0.999811487845053
0.155155155155155	0.999768072893701
0.156156156156156	0.999719035883181
0.157157157157157	0.999664112368639
0.158158158158158	0.999603037905223
0.159159159159159	0.999535548048081
0.16016016016016	0.999478844965996
0.161161161161161	0.999410292867955
0.162162162162162	0.999340165852397
0.163163163163163	0.999264959298039
0.164164164164164	0.9991811685836
0.165165165165165	0.999085289087799
0.166166166166166	0.998973816189353
0.167167167167167	0.998843245266982
0.168168168168168	0.998690071699401
0.169169169169169	0.998510790865332
0.17017017017017	0.99830189814349
0.171171171171171	0.998059888912595
0.172172172172172	0.997781258551365
0.173173173173173	0.997462502438517
0.174174174174174	0.997100115952771
0.175175175175175	0.996690594472845
0.176176176176176	0.996230433377456
0.177177177177177	0.995716128045323
0.178178178178178	0.995144173855163
0.179179179179179	0.994511066185697
0.18018018018018	0.993787586948969
0.181181181181181	0.993021215204451
0.182182182182182	0.992186035739585
0.183183183183183	0.991283885461722
0.184184184184184	0.990316601278211
0.185185185185185	0.989286020096402
0.186186186186186	0.988193978823645
0.187187187187187	0.987042314367289
0.188188188188188	0.985832863634684
0.189189189189189	0.98456746353318
0.19019019019019	0.983247950970127
0.191191191191191	0.981876162852875
0.192192192192192	0.980453936088772
0.193193193193193	0.97898310758517
0.194194194194194	0.977465514249417
0.195195195195195	0.975902992988865
0.196196196196196	0.974297380710861
0.197197197197197	0.972650514322757
0.198198198198198	0.970964230731901
0.199199199199199	0.969240366845645
0.2002002002002	0.967519874209342
0.201201201201201	0.965750469450595
0.202202202202202	0.963955333483035
0.203203203203203	0.962135667371208
0.204204204204204	0.960292672179662
0.205205205205205	0.958427548972941
0.206206206206206	0.956541498815593
0.207207207207207	0.954635722772164
0.208208208208208	0.952711421907201
0.209209209209209	0.950769797285249
0.21021021021021	0.948812049970856
0.211211211211211	0.946839381028567
0.212212212212212	0.944852991522929
0.213213213213213	0.942854082518489
0.214214214214214	0.940843855079793
0.215215215215215	0.938823510271386
0.216216216216216	0.936794249157816
0.217217217217217	0.934757272803629
0.218218218218218	0.932713782273372
0.219219219219219	0.93066497863159
0.22022022022022	0.928590135917604
0.221221221221221	0.926517583062541
0.222222222222222	0.924438305601885
0.223223223223223	0.922352621149523
0.224224224224224	0.920260847319341
0.225225225225225	0.918163301725224
0.226226226226226	0.916060301981059
0.227227227227227	0.913952165700733
0.228228228228228	0.911839210498131
0.229229229229229	0.909721753987139
0.23023023023023	0.907600113781644
0.231231231231231	0.905474607495532
0.232232232232232	0.903345552742689
0.233233233233233	0.901213267137001
0.234234234234234	0.899078068292354
0.235235235235235	0.896940273822634
0.236236236236236	0.894800201341728
0.237237237237237	0.892658168463522
0.238238238238238	0.890514492801902
0.239239239239239	0.888369491970754
0.24024024024024	0.886218502311185
0.241241241241241	0.884068522181137
0.242242242242242	0.881917088044526
0.243243243243243	0.879764332195596
0.244244244244244	0.877610386928591
0.245245245245245	0.875455384537753
0.246246246246246	0.873299457317326
0.247247247247247	0.871142737561554
0.248248248248248	0.868985357564679
0.249249249249249	0.866827449620944
0.25025025025025	0.864669146024594
0.251251251251251	0.862510579069872
0.252252252252252	0.86035188105102
0.253253253253253	0.858193184262282
0.254254254254254	0.856034620997902
0.255255255255255	0.853876323552122
0.256256256256256	0.851718424219186
0.257257257257257	0.849561055293338
0.258258258258258	0.84740434906882
0.259259259259259	0.845248437839876
0.26026026026026	0.843091798244346
0.261261261261261	0.840937026651742
0.262262262262262	0.838783115406127
0.263263263263263	0.836630139906052
0.264264264264264	0.834478175550065
0.265265265265265	0.832327297736716
0.266266266266266	0.830177581864556
0.267267267267267	0.828029103332134
0.268268268268268	0.825881937538
0.269269269269269	0.823736159880704
0.27027027027027	0.821591845758795
0.271271271271271	0.819449070570823
0.272272272272272	0.817307909715338
0.273273273273273	0.815168438590891
0.274274274274274	0.813030732596029
0.275275275275275	0.810894867129304
0.276276276276276	0.808760917589265
0.277277277277277	0.806628959374462
0.278278278278278	0.804499067883446
0.279279279279279	0.802371318514764
0.28028028028028	0.800245082753022
0.281281281281281	0.798121522475816
0.282282282282282	0.796000237632552
0.283283283283283	0.793881278004634
0.284284284284284	0.791764693373468
0.285285285285285	0.789650533520457
0.286286286286286	0.787538848227007
0.287287287287287	0.785429687274521
0.288288288288288	0.783323100444405
0.289289289289289	0.781219137518062
0.29029029029029	0.779117848276897
0.291291291291291	0.777019282502315
0.292292292292292	0.774923489975719
0.293293293293293	0.772830520478516
0.294294294294294	0.770740423792108
0.295295295295295	0.7686532496979
0.296296296296296	0.766569047977297
0.297297297297297	0.764487868411704
0.298298298298298	0.762409760782525
0.299299299299299	0.760334774871164
0.3003003003003	0.758262638702549
0.301301301301301	0.756193759105287
0.302302302302302	0.754128121394102
0.303303303303303	0.752065762358386
0.304304304304304	0.750006718787533
0.305305305305305	0.747951027470934
0.306306306306306	0.745898725197983
0.307307307307307	0.743849848758071
0.308308308308308	0.741804434940591
0.309309309309309	0.739762520534936
0.31031031031031	0.737724142330498
0.311311311311311	0.73568933711667
0.312312312312312	0.733658141682843
0.313313313313313	0.731630592818412
0.314314314314314	0.729606727312767
0.315315315315315	0.727586581955302
0.316316316316316	0.725570193535409
0.317317317317317	0.723557598842481
0.318318318318318	0.721548834665909
0.319319319319319	0.719543937795087
0.32032032032032	0.71754262979974
0.321321321321321	0.71554537295652
0.322322322322322	0.713552007277969
0.323323323323323	0.711562559131091
0.324324324324324	0.70957705488289
0.325325325325325	0.707595520900372
0.326326326326326	0.70561798355054
0.327327327327327	0.703644469200399
0.328328328328328	0.701675004216952
0.329329329329329	0.699709614967205
0.33033033033033	0.697748327818162
0.331331331331331	0.695791169136827
0.332332332332332	0.693838165290204
0.333333333333333	0.691889342645298
0.334334334334334	0.689944727569113
0.335335335335335	0.688004346428653
0.336336336336336	0.686068225590924
0.337337337337337	0.684136391422928
0.338338338338338	0.682208870291672
0.339339339339339	0.680285688564158
0.34034034034034	0.678366518009436
0.341341341341341	0.676451942537852
0.342342342342342	0.674541703987783
0.343343343343343	0.672635810088765
0.344344344344344	0.670734268570334
0.345345345345345	0.668837087162026
0.346346346346346	0.666944273593377
0.347347347347347	0.665055835593923
0.348348348348348	0.6631717808932
0.349349349349349	0.661292117220743
0.35035035035035	0.659416852306089
0.351351351351351	0.657545993878774
0.352352352352352	0.655679549668334
0.353353353353353	0.653817527404304
0.354354354354354	0.651959934816221
0.355355355355355	0.650106779633619
0.356356356356356	0.648258069586037
0.357357357357357	0.646413812403008
0.358358358358358	0.64457401581407
0.359359359359359	0.642738687548758
0.36036036036036	0.640907701943303
0.361361361361361	0.639081149542886
0.362362362362362	0.637259085674304
0.363363363363363	0.635441507821979
0.364364364364364	0.633628413470332
0.365365365365365	0.631819800103786
0.366366366366366	0.630015665206761
0.367367367367367	0.628216006263681
0.368368368368368	0.626420820758965
0.369369369369369	0.624630106177037
0.37037037037037	0.622843860002318
0.371371371371371	0.62106207971923
0.372372372372372	0.619284762812194
0.373373373373373	0.617511906765632
0.374374374374374	0.615743509063966
0.375375375375375	0.613979567191617
0.376376376376376	0.612220078633008
0.377377377377377	0.610465040872559
0.378378378378378	0.608714451394694
0.379379379379379	0.606968307683833
0.38038038038038	0.605226531648015
0.381381381381381	0.603489252546053
0.382382382382382	0.601756369872998
0.383383383383383	0.600027886809974
0.384384384384384	0.598303806538106
0.385385385385385	0.596584132238518
0.386386386386386	0.594868867092335
0.387387387387387	0.593158014280681
0.388388388388388	0.591451576984681
0.389389389389389	0.589749558385458
0.39039039039039	0.588051961664138
0.391391391391391	0.586358790001844
0.392392392392392	0.584670046579702
0.393393393393393	0.582985734578836
0.394394394394394	0.581305857180369
0.395395395395395	0.579630417565428
0.396396396396396	0.577959418915135
0.397397397397397	0.576292864410616
0.398398398398398	0.574630757232995
0.399399399399399	0.572973100563396
0.4004004004004	0.571320027635274
0.401401401401401	0.569671437030007
0.402402402402402	0.568027339500337
0.403403403403403	0.566387751100874
0.404404404404404	0.564752687886228
0.405405405405405	0.563122165911006
0.406406406406406	0.561496201229819
0.407407407407407	0.559874809897276
0.408408408408408	0.558258007967985
0.409409409409409	0.556645811496556
0.41041041041041	0.555038236537599
0.411411411411411	0.553435299145721
0.412412412412412	0.551837015375534
0.413413413413413	0.550243401281644
0.414414414414414	0.548654472918663
0.415415415415415	0.547070246341199
0.416416416416416	0.545490737603861
0.417417417417417	0.543915962761258
0.418418418418418	0.542345937868
0.419419419419419	0.540780678978695
0.42042042042042	0.539220449733625
0.421421421421421	0.537665064994582
0.422422422422422	0.536114554468546
0.423423423423423	0.534568963742345
0.424424424424424	0.53302833840281
0.425425425425425	0.531492724036773
0.426426426426426	0.529962166231062
0.427427427427427	0.528436710572509
0.428428428428428	0.526916402647944
0.429429429429429	0.525401288044198
0.43043043043043	0.523891412348101
0.431431431431431	0.522386821146483
0.432432432432432	0.520887560026175
0.433433433433433	0.519393674574007
0.434434434434434	0.51790521037681
0.435435435435435	0.516422213021414
0.436436436436436	0.51494472809465
0.437437437437437	0.513472801183348
0.438438438438438	0.512006477874338
0.439439439439439	0.510545803754451
0.44044044044044	0.509090924725828
0.441441441441441	0.507641846549496
0.442442442442442	0.506198596399679
0.443443443443443	0.50476121726769
0.444444444444444	0.503329752144844
0.445445445445445	0.501904244022455
0.446446446446446	0.500484735891836
0.447447447447447	0.499071270744301
0.448448448448448	0.497663891571165
0.449449449449449	0.496262641363741
0.45045045045045	0.494867563113342
0.451451451451451	0.493478699811284
0.452452452452452	0.492096094448879
0.453453453453453	0.490719790017443
0.454454454454454	0.489349829508288
0.455455455455455	0.487986255912728
0.456456456456456	0.486629112222079
0.457457457457457	0.485278441427652
0.458458458458458	0.483934286520763
0.459459459459459	0.482596690492725
0.46046046046046	0.48126536846005
0.461461461461461	0.479941122549014
0.462462462462462	0.478623224426277
0.463463463463463	0.477311803157387
0.464464464464464	0.476006987807893
0.465465465465465	0.474708907443342
0.466466466466466	0.473417691129282
0.467467467467467	0.472133467931262
0.468468468468468	0.47085636691483
0.469469469469469	0.469586517145533
0.47047047047047	0.46832404768892
0.471471471471471	0.467069087610539
0.472472472472472	0.465821765975937
0.473473473473473	0.464582211850664
0.474474474474474	0.463350554300265
0.475475475475475	0.462126922390291
0.476476476476476	0.460911445186289
0.477477477477477	0.459704251753806
0.478478478478478	0.458505471158392
0.47947947947948	0.457315232465594
0.48048048048048	0.456139340007546
0.481481481481481	0.454974024604073
0.482482482482482	0.453818059441919
0.483483483483483	0.452672923841232
0.484484484484485	0.451540097122163
0.485485485485485	0.450421058604862
0.486486486486486	0.44931728760948
0.487487487487487	0.448230263456166
0.488488488488488	0.447161465465072
0.48948948948949	0.446112372956346
0.49049049049049	0.44508446525014
0.491491491491491	0.444079221666604
0.492492492492493	0.443098121525888
0.493493493493493	0.442142644148142
0.494494494494495	0.441214268853517
0.495495495495495	0.440314474962162
0.496496496496497	0.439444741794228
0.497497497497498	0.438606548669866
0.498498498498498	0.437801374909225
0.4994994994995	0.437030699832456
0.500500500500501	0.436325825649653
0.501501501501502	0.435644327628149
0.502502502502503	0.435003384790465
0.503503503503503	0.434400958097776
0.504504504504504	0.433835008511257
0.505505505505506	0.433303496992084
0.506506506506507	0.432804384501434
0.507507507507508	0.43233563200048
0.508508508508508	0.4318952004504
0.509509509509509	0.431481050812369
0.510510510510511	0.431091144047562
0.511511511511512	0.430723441117155
0.512512512512513	0.430375902982324
0.513513513513513	0.430046490604244
0.514514514514514	0.429733164944091
0.515515515515516	0.429433886963042
0.516516516516517	0.429146617622271
0.517517517517518	0.428869317882953
0.518518518518518	0.428599948706266
0.519519519519519	0.428336471053384
0.520520520520521	0.428105042256791
0.521521521521522	0.427908943612403
0.522522522522523	0.427741492955387
0.523523523523523	0.427600000644517
0.524524524524524	0.427481777038571
0.525525525525526	0.427384132496324
0.526526526526527	0.427304377376552
0.527527527527528	0.427239822038032
0.528528528528529	0.42718777683954
0.529529529529529	0.42714555213985
0.530530530530531	0.427110458297741
0.531531531531532	0.427079805671987
0.532532532532533	0.427050904621365
0.533533533533534	0.427021065504651
0.534534534534534	0.426987598680621
0.535535535535536	0.42694781450805
0.536536536536537	0.426899023345716
0.537537537537538	0.426838535552394
0.538538538538539	0.42676366148686
0.539539539539539	0.42667171150789
0.540540540540541	0.426590766742107
0.541541541541542	0.426543946807427
0.542542542542543	0.426511857754431
0.543543543543544	0.426492510885091
0.544544544544544	0.42648391750138
0.545545545545546	0.426484088905268
0.546546546546547	0.42649103639873
0.547547547547548	0.426502771283734
0.548548548548549	0.426517304862255
0.54954954954955	0.426532648436265
0.550550550550551	0.426546813307734
0.551551551551552	0.426557810778635
0.552552552552553	0.42656365215094
0.553553553553554	0.426562348726621
0.554554554554555	0.42655191180765
0.555555555555556	0.426530352695999
0.556556556556557	0.42649568269364
0.557557557557558	0.426445913102544
0.558558558558559	0.426379055224685
0.55955955955956	0.426293120362033
0.560560560560561	0.426260594468476
0.561561561561562	0.42624766359935
0.562562562562563	0.426246024410478
0.563563563563564	0.42625380317106
0.564564564564565	0.426269126150299
0.565565565565566	0.426290119617396
0.566566566566567	0.426314909841553
0.567567567567568	0.426341623091971
0.568568568568569	0.426368385637852
0.56956956956957	0.426393323748398
0.570570570570571	0.426414563692811
0.571571571571572	0.426430231740291
0.572572572572573	0.42643845416004
0.573573573573574	0.426437357221261
0.574574574574575	0.426425067193155
0.575575575575576	0.426399710344922
0.576576576576577	0.426359412945766
0.577577577577578	0.426302301264887
0.578578578578579	0.426226501571488
0.57957957957958	0.426130140134769
0.580580580580581	0.426156657359231
0.581581581581582	0.426167875797681
0.582582582582583	0.42618526213148
0.583583583583584	0.426207370412673
0.584584584584585	0.426232754693304
0.585585585585586	0.426259969025417
0.586586586586587	0.426287567461054
0.587587587587588	0.426314104052259
0.588588588588589	0.426338132851077
0.58958958958959	0.426358207909551
0.590590590590591	0.426372883279723
0.591591591591592	0.426380713013639
0.592592592592593	0.426380251163341
0.593593593593594	0.426370051780874
0.594594594594595	0.42634866891828
0.595595595595596	0.426314656627603
0.596596596596597	0.426266568960888
0.597597597597598	0.426202959970178
0.598598598598599	0.426122383707515
0.5995995995996	0.426023394224945
0.600600600600601	0.426108838971699
0.601601601601602	0.426139511135533
0.602602602602603	0.426170095252688
0.603603603603604	0.426199796618008
0.604604604604605	0.426227820526342
0.605605605605606	0.426253372272534
0.606606606606607	0.426275657151432
0.607607607607608	0.426293880457882
0.608608608608609	0.426307247486731
0.60960960960961	0.426314963532826
0.610610610610611	0.426316233891011
0.611611611611612	0.426310263856136
0.612612612612613	0.426296258723044
0.613613613613614	0.426273423786584
0.614614614614615	0.426240964341602
0.615615615615616	0.426198085682944
0.616616616616617	0.426143993105456
0.617617617617618	0.426077891903987
0.618618618618619	0.42599898737338
0.61961961961962	0.425906484808484
0.620620620620621	0.426038673009508
0.621621621621622	0.426079859367653
0.622622622622623	0.426114811034697
0.623623623623624	0.426143441572951
0.624624624624625	0.426165664544728
0.625625625625626	0.426181393512338
0.626626626626627	0.426190542038094
0.627627627627628	0.426193023684308
0.628628628628629	0.426188752013291
0.62962962962963	0.426177640587356
0.630630630630631	0.426159602968814
0.631631631631632	0.426134552719976
0.632632632632633	0.426102403403156
0.633633633633634	0.426063068580664
0.634634634634635	0.426016461814813
0.635635635635636	0.425962496667914
0.636636636636637	0.42590108670228
0.637637637637638	0.425832145480222
0.638638638638639	0.425755586564051
0.63963963963964	0.42567132351608
0.640640640640641	0.425816668948778
0.641641641641642	0.425847788299347
0.642642642642643	0.425865339335271
0.643643643643644	0.425869944342257
0.644644644644645	0.425862225606007
0.645645645645646	0.425842805412226
0.646646646646647	0.425812306046618
0.647647647647648	0.425771349794888
0.648648648648649	0.425720558942739
0.64964964964965	0.425660555775877
0.650650650650651	0.425591962580005
0.651651651651652	0.425515401640827
0.652652652652653	0.425431495244049
0.653653653653654	0.425340865675374
0.654654654654655	0.425244135220506
0.655655655655656	0.42514192616515
0.656656656656657	0.42503486079501
0.657657657657658	0.42492356139579
0.658658658658659	0.424808650253195
0.65965965965966	0.424690749652929
0.660660660660661	0.424774141970092
0.661661661661662	0.424722301900506
0.662662662662663	0.424651016898235
0.663663663663664	0.424561099008126
0.664664664664665	0.424453360275024
0.665665665665666	0.424328612743776
0.666666666666667	0.424187668459229
0.667667667667668	0.424031339466229
0.668668668668669	0.423860437809623
0.66966966966967	0.423675775534257
0.670670670670671	0.423478164684978
0.671671671671672	0.423268417306631
0.672672672672673	0.423047345444065
0.673673673673674	0.422815761142124
0.674674674674675	0.422574476445656
0.675675675675676	0.422324303399507
0.676676676676677	0.422066054048523
0.677677677677678	0.421800540437552
0.678678678678679	0.421528574611439
0.67967967967968	0.42125096861503
0.680680680680681	0.421116677013582
0.681681681681682	0.42081800742932
0.682682682682683	0.420484435936421
0.683683683683684	0.420116216759908
0.684684684684685	0.419713604124801
0.685685685685686	0.419276852256121
0.686686686686687	0.41880621537889
0.687687687687688	0.418301947718129
0.688688688688689	0.41776430349886
0.68968968968969	0.417193536946104
0.690690690690691	0.416589902284883
0.691691691691692	0.415953653740217
0.692692692692693	0.415285045537128
0.693693693693694	0.414584331900637
0.694694694694695	0.413851767055767
0.695695695695696	0.413087605227537
0.696696696696697	0.41229210064097
0.697697697697698	0.411465507521086
0.698698698698699	0.410608080092908
0.6996996996997	0.409720072581456
0.700700700700701	0.408693065054613
0.701701701701702	0.407760155637906
0.702702702702703	0.406719356275094
0.703703703703704	0.405566827904791
0.704704704704705	0.404298731465605
0.705705705705706	0.402911227896148
0.706706706706707	0.401400478135031
0.707707707707708	0.399762643120864
0.708708708708709	0.397993883792258
0.70970970970971	0.396090361087823
0.710710710710711	0.394048235946171
0.711711711711712	0.391863669305911
0.712712712712713	0.389532822105655
0.713713713713714	0.387051855284013
0.714714714714715	0.384416929779597
0.715715715715716	0.381624206531016
0.716716716716717	0.378669846476882
0.717717717717718	0.375550010555804
0.718718718718719	0.372260859706394
0.71971971971972	0.368798554867263
0.720720720720721	0.365347552319902
0.721721721721722	0.361427100647306
0.722722722722723	0.357389080677587
0.723723723723724	0.353255608459447
0.724724724724725	0.349048800041588
0.725725725725726	0.344790771472712
0.726726726726727	0.340503638801521
0.727727727727728	0.336209518076717
0.728728728728729	0.331930525347003
0.72972972972973	0.327688776661079
0.730730730730731	0.323506388067649
0.731731731731732	0.319405475615415
0.732732732732733	0.315408155353077
0.733733733733734	0.311536543329339
0.734734734734735	0.307812755592902
0.735735735735736	0.304258908192469
0.736736736736737	0.300897117176741
0.737737737737738	0.297749498594421
0.738738738738739	0.294838168494211
0.73973973973974	0.292185242924812
0.740740740740741	0.289657531428029
0.741741741741742	0.287479356830929
0.742742742742743	0.285479194447374
0.743743743743744	0.283647392408253
0.744744744744745	0.281974298844459
0.745745745745746	0.280450261886884
0.746746746746747	0.279065629666417
0.747747747747748	0.277810750313951
0.748748748748749	0.276675971960378
0.74974974974975	0.275651642736589
0.750750750750751	0.274728110773475
0.751751751751752	0.273895724201928
0.752752752752753	0.273144831152839
0.753753753753754	0.2724657797571
0.754754754754755	0.271848918145603
0.755755755755756	0.271284594449238
0.756756756756757	0.270763156798897
0.757757757757758	0.270274953325472
0.758758758758759	0.269810332159855
0.75975975975976	0.269359641432936
0.760760760760761	0.269008769574621
0.761761761761762	0.268660438101826
0.762762762762763	0.268345643015004
0.763763763763764	0.268062094243029
0.764764764764765	0.267807501714775
0.765765765765766	0.267579575359115
0.766766766766767	0.267376025104923
0.767767767767768	0.267194560881074
0.768768768768769	0.267032892616441
0.76976976976977	0.266888730239897
0.770770770770771	0.266759783680317
0.771771771771772	0.266643762866574
0.772772772772773	0.266538377727542
0.773773773773774	0.266441338192094
0.774774774774775	0.266350354189106
0.775775775775776	0.266263135647449
0.776776776776777	0.266177392495999
0.777777777777778	0.266090834663628
0.778778778778779	0.266001172079211
0.77977977977978	0.265906114671621
0.780780780780781	0.265885407270295
0.781781781781782	0.265828602814232
0.782782782782783	0.265781510107187
0.783783783783784	0.265743089640186
0.784784784784785	0.265712301904256
0.785785785785786	0.265688107390425
0.786786786786787	0.265669466589719
0.787787787787788	0.265655339993165
0.788788788788789	0.265644688091791
0.78978978978979	0.265636471376624
0.790790790790791	0.265629650338689
0.791791791791792	0.265623185469016
0.792792792792793	0.265616037258629
0.793793793793794	0.265607166198558
0.794794794794795	0.265595532779828
0.795795795795796	0.265580097493467
0.796796796796797	0.265559820830502
0.797797797797798	0.265533663281959
0.798798798798799	0.265500585338866
0.7997997997998	0.26545954749225
0.800800800800801	0.265425077509266
0.801801801801802	0.26539086231041
0.802802802802803	0.265363675517517
0.803803803803804	0.265342992037243
0.804804804804805	0.26532828677624
0.805805805805806	0.265319034641164
0.806806806806807	0.265314710538667
0.807807807807808	0.265314789375405
0.808808808808809	0.265318746058031
0.80980980980981	0.2653260554932
0.810810810810811	0.265336192587565
0.811811811811812	0.265348632247781
0.812812812812813	0.265362849380502
0.813813813813814	0.265378318892381
0.814814814814815	0.265394515690074
0.815815815815816	0.265410914680234
0.816816816816817	0.265426990769515
0.817817817817818	0.265442218864571
0.818818818818819	0.265456073872056
0.81981981981982	0.265468030698626
0.820820820820821	0.265411685665311
0.821821821821822	0.265388919030466
0.822822822822823	0.26536669054152
0.823823823823824	0.265345428193346
0.824824824824825	0.265325559980812
0.825825825825826	0.265307513898789
0.826826826826827	0.265291717942147
0.827827827827828	0.265278600105757
0.828828828828829	0.26526858838449
0.82982982982983	0.265262110773215
0.830830830830831	0.265259595266803
0.831831831831832	0.265261469860124
0.832832832832833	0.265268162548048
0.833833833833834	0.265280101325447
0.834834834834835	0.26529771418719
0.835835835835836	0.265321429128147
0.836836836836837	0.265351674143189
0.837837837837838	0.265388877227187
0.838838838838839	0.26543346637501
0.83983983983984	0.265485869581529
0.840840840840841	0.265458482825383
0.841841841841842	0.265461458803793
0.842842842842843	0.265458461974777
0.843843843843844	0.26545045326566
0.844844844844845	0.26543839360377
0.845845845845846	0.265423243916431
0.846846846846847	0.265405965130969
0.847847847847848	0.265387518174712
0.848848848848849	0.265368863974984
0.84984984984985	0.265350963459113
0.850850850850851	0.265334777554423
0.851851851851852	0.265321267188241
0.852852852852853	0.265311393287893
0.853853853853854	0.265306116780705
0.854854854854855	0.265306398594004
0.855855855855856	0.265313199655114
0.856856856856857	0.265327480891363
0.857857857857858	0.265350203230076
0.858858858858859	0.265382327598579
0.85985985985986	0.265424814924198
0.860860860860861	0.265455459679467
0.861861861861862	0.26548678009997
0.862862862862863	0.265510186689935
0.863863863863864	0.265526398547513
0.864864864864865	0.265536134770856
0.865865865865866	0.265540114458117
0.866866866866867	0.265539056707449
0.867867867867868	0.265533680617002
0.868868868868869	0.26552470528493
0.86986986986987	0.265512849809385
0.870870870870871	0.265498833288518
0.871871871871872	0.265483374820483
0.872872872872873	0.265467193503431
0.873873873873874	0.265451008435514
0.874874874874875	0.265435538714885
0.875875875875876	0.265421503439696
0.876876876876877	0.265409621708099
0.877877877877878	0.265400612618247
0.878878878878879	0.265395195268291
0.87987987987988	0.265394088756385
0.880880880880881	0.265460891925335
0.881881881881882	0.265485096124679
0.882882882882883	0.265510721649866
0.883883883883884	0.265537060898858
0.884884884884885	0.26556340626962
0.885885885885886	0.265589050160116
0.886886886886887	0.265613284968309
0.887887887887888	0.265635403092163
0.888888888888889	0.265654696929643
0.88988988988989	0.265670458878712
0.890890890890891	0.265681981337334
0.891891891891892	0.265688556703472
0.892892892892893	0.265689477375092
0.893893893893894	0.265684035750156
0.894894894894895	0.265671524226629
0.895895895895896	0.265651235202474
0.896896896896897	0.265622461075656
0.897897897897898	0.265584494244137
0.898898898898899	0.265536627105883
0.8998998998999	0.265478152058857
0.900900900900901	0.265601251190667
0.901901901901902	0.265475333781658
0.902902902902903	0.265418036652645
0.903903903903904	0.265417237138481
0.904904904904905	0.265460812574018
0.905905905905906	0.265536640294108
0.906906906906907	0.265632597633604
0.907907907907908	0.265736561927358
0.908908908908909	0.265836410510223
0.90990990990991	0.26592002071705
0.910910910910911	0.265975269882692
0.911911911911912	0.265990035342002
0.912912912912913	0.265952194429832
0.913913913913914	0.265849624481034
0.914914914914915	0.26567020283046
0.915915915915916	0.265401806812964
0.916916916916917	0.265032313763397
0.917917917917918	0.264549601016611
0.918918918918919	0.26394154590746
0.91991991991992	0.263196025770795
0.920920920920921	0.26192691951822
0.921921921921922	0.261059933310757
0.922922922922923	0.259922198126929
0.923923923923924	0.258514013905339
0.924924924924925	0.256835680584586
0.925925925925926	0.254887498103272
0.926926926926927	0.252669766399998
0.927927927927928	0.250182785413364
0.928928928928929	0.247426855081971
0.92992992992993	0.244402275344421
0.930930930930931	0.241109346139313
0.931931931931932	0.237548367405249
0.932932932932933	0.23371963908083
0.933933933933934	0.229623461104656
0.934934934934935	0.22526013341533
0.935935935935936	0.22062995595145
0.936936936936937	0.215733228651619
0.937937937937938	0.210570251454436
0.938938938938939	0.205141324298503
0.93993993993994	0.199446747122421
0.940940940940941	0.19350709061966
0.941941941941942	0.186733894939106
0.942942942942943	0.180314716266068
0.943943943943944	0.17425107324865
0.944944944944945	0.168544484534959
0.945945945945946	0.163196468773102
0.946946946946947	0.158208544611183
0.947947947947948	0.153582230697308
0.948948948948949	0.149319045679584
0.94994994994995	0.145420508206117
0.950950950950951	0.141888136925012
0.951951951951952	0.138723450484375
0.952952952952953	0.135927967532312
0.953953953953954	0.133503206716928
0.954954954954955	0.131450686686331
0.955955955955956	0.129771926088626
0.956956956956957	0.128468443571918
0.957957957957958	0.127541757784313
0.958958958958959	0.126993387373917
0.95995995995996	0.126824850988837
0.960960960960961	0.126383497399992
0.961961961961962	0.126086227132251
0.962962962962963	0.1258314077034
0.963963963963964	0.125615989758866
0.964964964964965	0.125436923944074
0.965965965965966	0.125291160904452
0.966966966966967	0.125175651285425
0.967967967967968	0.125087345732421
0.968968968968969	0.125023194890864
0.96996996996997	0.124980149406182
0.970970970970971	0.124955159923801
0.971971971971972	0.124945177089148
0.972972972972973	0.124947151547648
0.973973973973974	0.124958033944728
0.974974974974975	0.124974774925814
0.975975975975976	0.124994325136333
0.976976976976977	0.125013635221711
0.977977977977978	0.125029655827375
0.978978978978979	0.12503933759875
0.97997997997998	0.125039631181263
0.980980980980981	0.125013260310868
0.981981981981982	0.125005973101781
0.982982982982983	0.125000441248111
0.983983983983984	0.124996478414209
0.984984984984985	0.124993898264425
0.985985985985986	0.12499251446311
0.986986986986987	0.124992140674615
0.987987987987988	0.12499259056329
0.988988988988989	0.124993677793486
0.98998998998999	0.124995216029554
0.990990990990991	0.124997018935843
0.991991991991992	0.124998900176706
0.992992992992993	0.125000673416492
0.993993993993994	0.125002152319553
0.994994994994995	0.125003150550238
0.995995995995996	0.125003481772899
0.996996996996997	0.125002959651885
0.997997997997998	0.125001397851549
0.998998998998999	0.124998610036239
1	0.124994409870308
