x 	 y
0	1
0.0025062656641604	1
0.0050125313283208	1
0.0075187969924812	1
0.0100250626566416	1
0.012531328320802	1
0.0150375939849624	1
0.0175438596491228	1
0.0200501253132832	1
0.0225563909774436	1
0.025062656641604	1
0.0275689223057644	1
0.0300751879699248	1
0.0325814536340852	1
0.0350877192982456	1
0.037593984962406	1
0.0401002506265664	1
0.0426065162907268	1
0.0451127819548872	1
0.0476190476190476	1
0.050125313283208	1
0.0526315789473684	1
0.0551378446115288	1
0.0576441102756892	1
0.0601503759398496	1
0.06265664160401	1
0.0651629072681704	1
0.0676691729323308	1
0.0701754385964912	1
0.0726817042606516	1
0.075187969924812	1
0.0776942355889724	1
0.0802005012531328	1
0.0827067669172932	1
0.0852130325814536	1
0.087719298245614	1
0.0902255639097744	1
0.0927318295739348	1
0.0952380952380952	1
0.0977443609022556	1
0.100250626566416	1
0.102756892230576	1
0.105263157894737	1
0.107769423558897	1
0.110275689223058	1
0.112781954887218	1
0.115288220551378	1
0.117794486215539	1
0.120300751879699	1
0.12280701754386	1
0.12531328320802	1
0.12781954887218	1
0.130325814536341	1
0.132832080200501	1
0.135338345864662	1
0.137844611528822	1
0.140350877192983	1
0.142857142857143	1
0.145363408521303	1
0.147869674185464	1
0.150375939849624	1
0.152882205513785	1
0.155388471177945	1
0.157894736842105	1
0.160401002506266	1
0.162907268170426	1
0.165413533834587	1
0.167919799498747	1
0.170426065162907	1
0.172932330827068	1
0.175438596491228	1
0.177944862155388	1
0.180451127819549	1
0.182957393483709	1
0.18546365914787	1
0.18796992481203	1
0.19047619047619	1
0.192982456140351	1
0.195488721804511	1
0.197994987468672	1
0.200501253132832	1
0.203007518796993	1
0.205513784461153	0.996293102098655
0.208020050125313	0.989273312957509
0.210526315789474	0.982293148322417
0.213032581453634	0.975352440205231
0.215538847117795	0.96845102109326
0.218045112781955	0.961588723948608
0.220551378446115	0.954765382207488
0.223057644110276	0.947980829779563
0.225563909774436	0.941234901047256
0.228070175438597	0.934527430865089
0.230576441102757	0.927858254559001
0.233082706766917	0.92122720792568
0.235588972431078	0.914634127231884
0.238095238095238	0.908078849213772
0.240601503759399	0.901561211076226
0.243107769423559	0.895081050492181
0.245614035087719	0.888638205601947
0.24812030075188	0.88223251501254
0.25062656641604	0.875863817797003
0.2531328320802	0.869531953493739
0.255639097744361	0.863236762105826
0.258145363408521	0.856978084100359
0.260651629072682	0.850755760407759
0.263157894736842	0.844569632421114
0.265664160401002	0.838419541995495
0.268170426065163	0.832305331447288
0.270676691729323	0.826226843553516
0.273182957393484	0.82018392155117
0.275689223057644	0.814176409136531
0.278195488721805	0.808204150464497
0.280701754385965	0.80226699014791
0.283208020050125	0.796364773256886
0.285714285714286	0.79049734531813
0.288220551378446	0.784664552314277
0.290726817042607	0.778866240683204
0.293233082706767	0.773102257317368
0.295739348370927	0.767372449563124
0.298245614035088	0.761676665220055
0.300751879699248	0.756014752540298
0.303258145363409	0.750386560227869
0.305764411027569	0.744791937437988
0.308270676691729	0.739230733776411
0.31077694235589	0.733702799298748
0.31328320802005	0.728207984509797
0.315789473684211	0.722746140362861
0.318295739348371	0.717317118259087
0.320802005012531	0.711920770046779
0.323308270676692	0.706556948020732
0.325814536340852	0.701225504921556
0.328320802005013	0.695926293935004
0.330827067669173	0.690659168691294
0.333333333333333	0.68542398326444
0.335839598997494	0.680220592171573
0.338345864661654	0.675048850372275
0.340852130325815	0.669908613267895
0.343358395989975	0.664799736700885
0.345864661654135	0.659722076954118
0.348370927318296	0.65467549075022
0.350877192982456	0.649659835250893
0.353383458646617	0.644674968056245
0.355889724310777	0.639720747204109
0.358395989974937	0.634797031169377
0.360902255639098	0.629903678863321
0.363408521303258	0.625040549632924
0.365914786967419	0.620207503260197
0.368421052631579	0.61540439996152
0.370927318295739	0.610631100386951
0.3734335839599	0.605887465619566
0.37593984962406	0.601173357174779
0.37844611528822	0.596488636999668
0.380952380952381	0.591833167472303
0.383458646616541	0.587206811401073
0.385964912280702	0.582609432024006
0.388471177944862	0.578040893008106
0.390977443609022	0.573501058448668
0.393483709273183	0.568989792868612
0.395989974937343	0.564506961217805
0.398496240601504	0.56005242887239
0.401002506265664	0.55562606163411
0.403508771929824	0.551227725729634
0.406015037593985	0.546857287809886
0.408521303258145	0.542514614949369
0.411027568922306	0.538199574645489
0.413533834586466	0.533912034817887
0.416040100250626	0.529651863807761
0.418546365914787	0.525418930377192
0.421052631578947	0.521213103708472
0.423558897243108	0.517034253403429
0.426065162907268	0.512882249482754
0.428571428571429	0.508756962385328
0.431077694235589	0.504658262967545
0.433583959899749	0.500586022502641
0.43609022556391	0.496540112680019
0.43859649122807	0.492520405604577
0.441102756892231	0.48852677379603
0.443609022556391	0.484559090188243
0.446115288220551	0.480617228128549
0.448621553884712	0.476701061377082
0.451127819548872	0.472810464106099
0.453634085213033	0.468945310899308
0.456140350877193	0.465105476751195
0.458646616541353	0.461290837066348
0.461152882205514	0.457501267658783
0.463659147869674	0.453736644751274
0.466165413533835	0.449996844974675
0.468671679197995	0.446281745367249
0.471177944862155	0.442591223373991
0.473684210526316	0.438925156845958
0.476190476190476	0.435283424039593
0.478696741854637	0.43166590361605
0.481203007518797	0.428072474640524
0.483709273182957	0.426319428178495
0.486215538847118	0.426319428178495
0.488721804511278	0.426319428178495
0.491228070175439	0.426319428178495
0.493734335839599	0.426319428178495
0.496240601503759	0.426319428178495
0.49874686716792	0.426319428178495
0.50125313283208	0.426319428178495
0.503759398496241	0.426319428178495
0.506265664160401	0.426319428178495
0.508771929824561	0.426319428178495
0.511278195488722	0.426319428178495
0.513784461152882	0.426319428178495
0.516290726817043	0.426319428178495
0.518796992481203	0.426319428178495
0.521303258145363	0.426319428178495
0.523809523809524	0.426319428178495
0.526315789473684	0.426319428178495
0.528822055137845	0.426319428178495
0.531328320802005	0.426319428178495
0.533834586466165	0.426319428178495
0.536340852130326	0.426319428178495
0.538847117794486	0.426319428178495
0.541353383458647	0.426319428178495
0.543859649122807	0.426319428178495
0.546365914786967	0.426319428178495
0.548872180451128	0.426319428178495
0.551378446115288	0.426319428178495
0.553884711779449	0.426319428178495
0.556390977443609	0.426319428178495
0.558897243107769	0.426319428178495
0.56140350877193	0.426319428178495
0.56390977443609	0.426319428178495
0.566416040100251	0.426319428178495
0.568922305764411	0.426319428178495
0.571428571428571	0.426319428178495
0.573934837092732	0.426319428178495
0.576441102756892	0.426319428178495
0.578947368421053	0.426319428178495
0.581453634085213	0.426319428178495
0.583959899749373	0.426319428178495
0.586466165413534	0.426319428178495
0.588972431077694	0.426319428178495
0.591478696741855	0.426319428178495
0.593984962406015	0.426319428178495
0.596491228070175	0.426319428178495
0.598997493734336	0.426319428178495
0.601503759398496	0.426319428178495
0.604010025062657	0.426319428178495
0.606516290726817	0.426319428178495
0.609022556390977	0.426319428178495
0.611528822055138	0.426319428178495
0.614035087719298	0.426319428178495
0.616541353383459	0.426319428178495
0.619047619047619	0.426319428178495
0.621553884711779	0.426319428178495
0.62406015037594	0.426319428178495
0.6265664160401	0.426319428178495
0.629072681704261	0.426319428178495
0.631578947368421	0.426319428178495
0.634085213032581	0.426319428178495
0.636591478696742	0.426319428178495
0.639097744360902	0.426319428178495
0.641604010025063	0.426319428178495
0.644110275689223	0.426319428178495
0.646616541353383	0.426319428178495
0.649122807017544	0.426319428178495
0.651629072681704	0.426319428178495
0.654135338345865	0.426319428178495
0.656641604010025	0.426319428178495
0.659147869674185	0.426319428178495
0.661654135338346	0.426319428178495
0.664160401002506	0.426319428178495
0.666666666666667	0.426319428178495
0.669172932330827	0.426319428178495
0.671679197994987	0.426319428178495
0.674185463659148	0.426319428178495
0.676691729323308	0.426319428178495
0.679197994987469	0.426319428178495
0.681704260651629	0.426319428178495
0.684210526315789	0.426319428178495
0.68671679197995	0.426319428178495
0.68922305764411	0.426319428178495
0.691729323308271	0.426319428178495
0.694235588972431	0.426319428178495
0.696741854636591	0.426319428178495
0.699248120300752	0.426319428178495
0.701754385964912	0.426319428178495
0.704260651629073	0.426319428178495
0.706766917293233	0.426319428178495
0.709273182957394	0.426319428178495
0.711779448621554	0.426319428178495
0.714285714285714	0.426319428178495
0.716791979949875	0.426319428178495
0.719298245614035	0.426319428178495
0.721804511278195	0.426319428178495
0.724310776942356	0.426319428178495
0.726817042606516	0.426319428178495
0.729323308270677	0.426319428178495
0.731829573934837	0.426319428178495
0.734335839598998	0.265573711705307
0.736842105263158	0.265573711705307
0.739348370927318	0.265573711705307
0.741854636591479	0.265573711705307
0.744360902255639	0.265573711705307
0.746867167919799	0.265573711705307
0.74937343358396	0.265573711705307
0.75187969924812	0.265573711705307
0.754385964912281	0.265573711705307
0.756892230576441	0.265573711705307
0.759398496240602	0.265573711705307
0.761904761904762	0.265573711705307
0.764411027568922	0.265573711705307
0.766917293233083	0.265573711705307
0.769423558897243	0.265573711705307
0.771929824561403	0.265573711705307
0.774436090225564	0.265573711705307
0.776942355889724	0.265573711705307
0.779448621553885	0.265573711705307
0.781954887218045	0.265573711705307
0.784461152882206	0.265573711705307
0.786967418546366	0.265573711705307
0.789473684210526	0.265573711705307
0.791979949874687	0.265573711705307
0.794486215538847	0.265573711705307
0.796992481203007	0.265573711705307
0.799498746867168	0.265573711705307
0.802005012531328	0.265573711705307
0.804511278195489	0.265573711705307
0.807017543859649	0.265573711705307
0.80952380952381	0.265573711705307
0.81203007518797	0.265573711705307
0.81453634085213	0.265573711705307
0.817042606516291	0.265573711705307
0.819548872180451	0.265573711705307
0.822055137844611	0.265573711705307
0.824561403508772	0.265573711705307
0.827067669172932	0.265573711705307
0.829573934837093	0.265573711705307
0.832080200501253	0.265573711705307
0.834586466165414	0.265573711705307
0.837092731829574	0.265573711705307
0.839598997493734	0.265573711705307
0.842105263157895	0.265573711705307
0.844611528822055	0.265573711705307
0.847117794486215	0.265573711705307
0.849624060150376	0.265573711705307
0.852130325814536	0.265573711705307
0.854636591478697	0.265573711705307
0.857142857142857	0.265573711705307
0.859649122807018	0.265573711705307
0.862155388471178	0.265573711705307
0.864661654135338	0.265573711705307
0.867167919799499	0.265573711705307
0.869674185463659	0.265573711705307
0.87218045112782	0.265573711705307
0.87468671679198	0.265573711705307
0.87719298245614	0.265573711705307
0.879699248120301	0.265573711705307
0.882205513784461	0.265573711705307
0.884711779448622	0.265573711705307
0.887218045112782	0.265573711705307
0.889724310776942	0.265573711705307
0.892230576441103	0.265573711705307
0.894736842105263	0.265573711705307
0.897243107769424	0.265573711705307
0.899749373433584	0.265573711705307
0.902255639097744	0.265573711705307
0.904761904761905	0.265573711705307
0.907268170426065	0.265573711705307
0.909774436090226	0.265573711705307
0.912280701754386	0.265573711705307
0.914786967418546	0.265573711705307
0.917293233082707	0.265573711705307
0.919799498746867	0.265573711705307
0.922305764411028	0.265573711705307
0.924812030075188	0.265573711705307
0.927318295739348	0.265573711705307
0.929824561403509	0.265573711705307
0.932330827067669	0.265573711705307
0.93483709273183	0.265573711705307
0.93734335839599	0.265573711705307
0.93984962406015	0.125
0.942355889724311	0.125
0.944862155388471	0.125
0.947368421052632	0.125
0.949874686716792	0.125
0.952380952380952	0.125
0.954887218045113	0.125
0.957393483709273	0.125
0.959899749373434	0.125
0.962406015037594	0.125
0.964912280701754	0.125
0.967418546365915	0.125
0.969924812030075	0.125
0.972431077694236	0.125
0.974937343358396	0.125
0.977443609022556	0.125
0.979949874686717	0.125
0.982456140350877	0.125
0.984962406015038	0.125
0.987468671679198	0.125
0.989974937343358	0.125
0.992481203007519	0.125
0.994987468671679	0.125
0.99749373433584	0.125
1	0.125
