0	0.999999728428447
0.0050251256281407	0.999999841229946
0.0100502512562814	1.00000004251397
0.0150753768844221	1.00000033228051
0.0201005025125628	1.00000052109411
0.0251256281407035	0.999999872843979
0.0301507537688442	0.99999936362983
0.0351758793969849	0.999998993451662
0.0402010050251256	0.999999725856985
0.0452261306532663	1.00000199966831
0.050251256281407	1.00000247335968
0.0552763819095477	1.00000114693112
0.0603015075376884	0.999996192604857
0.0653266331658292	0.999992927021247
0.0703517587939698	0.999995594665386
0.0753768844221106	1.00000419553727
0.0804020100502513	1.00001791000015
0.085427135678392	1.0000146120859
0.0904522613065327	0.999999166208782
0.0954773869346734	0.999971572368787
0.100502512562814	0.999948265622264
0.105527638190955	0.999982838842969
0.110552763819095	1.00003476703195
0.115577889447236	1.00010405018922
0.120603015075377	1.00012671190964
0.125628140703518	0.999998114493381
0.130653266331658	0.999841123783509
0.135678391959799	0.999655739780021
0.14070351758794	0.999619141867768
0.14572864321608	0.999936343829528
0.150753768844221	1.00031034818001
0.155778894472362	1.00074115491921
0.160804020100503	1.00084316681186
0.165829145728643	0.999877740981515
0.170854271356784	0.997642427232577
0.175879396984925	0.994137225565049
0.180904522613065	0.989127360613245
0.185929648241206	0.98296294887244
0.190954773869347	0.975848826331738
0.195979899497487	0.96778499299114
0.201005025125628	0.959096954634923
0.206030150753769	0.949982184261742
0.21105527638191	0.940524023089085
0.21608040201005	0.930722471116953
0.221105527638191	0.920734765643262
0.226130653266332	0.910572075589365
0.231155778894472	0.900292053365154
0.236180904522613	0.889894698970628
0.241206030150754	0.879447655735734
0.246231155778894	0.868941287196868
0.251256281407035	0.858414067326025
0.256281407035176	0.847865996123204
0.261306532663317	0.837337681964242
0.266331658291457	0.826829153668112
0.271356783919598	0.816353475793305
0.276381909547739	0.805910648339821
0.281407035175879	0.795522647615479
0.28643216080402	0.78520904689511
0.291457286432161	0.774965122502803
0.296482412060302	0.764790874438558
0.301507537688442	0.754694955447662
0.306532663316583	0.744689769048584
0.311557788944724	0.734782143339977
0.316582914572864	0.724972078321842
0.321608040201005	0.715263219200006
0.326633165829146	0.705640508074463
0.331658291457286	0.696125241165117
0.336683417085427	0.686717418471969
0.341708542713568	0.677416809625649
0.346733668341709	0.668214654315432
0.351758793969849	0.65911438069554
0.35678391959799	0.650115988765973
0.361809045226131	0.641212556469374
0.366834170854271	0.632409316550689
0.371859296482412	0.623708042895074
0.376884422110553	0.615108735502531
0.381909547738693	0.60660472910026
0.386934673366834	0.598186411074399
0.391959798994975	0.589868443165155
0.396984924623116	0.581650825372528
0.402010050251256	0.573530903199702
0.407035175879397	0.565512580561616
0.412060301507538	0.557597091969887
0.417085427135678	0.549784437424516
0.422110552763819	0.542071973925908
0.42713567839196	0.534458340422555
0.4321608040201	0.526958817859001
0.437185929648241	0.519573406235247
0.442211055276382	0.512302620603619
0.447236180904523	0.505152768223998
0.452261306532663	0.498133723398594
0.457286432160804	0.491245486127407
0.462311557788945	0.484501605080539
0.467336683417085	0.477919710098036
0.472361809045226	0.471530869228944
0.477386934673367	0.465335082473263
0.482412060301508	0.459375430342244
0.487437185929648	0.453684188333416
0.492462311557789	0.448305096135836
0.49748743718593	0.443238153749504
0.50251256281407	0.438580508646584
0.507537688442211	0.434576875925907
0.512562814070352	0.431393862316863
0.517587939698492	0.429031467819452
0.522613065326633	0.427988876224981
0.527638190954774	0.427406238192838
0.532663316582915	0.427149520277563
0.537688442211055	0.427218722479158
0.542713567839196	0.426978389197425
0.547738693467337	0.426879906992024
0.552763819095477	0.426789400647171
0.557788944723618	0.426706870162864
0.562814070351759	0.426581816472095
0.5678391959799	0.426482573192643
0.57286432160804	0.426395917432024
0.577889447236181	0.426321849190237
0.582914572864322	0.426270531247492
0.587939698492462	0.426230157273134
0.592964824120603	0.42619138751331
0.597989949748744	0.426154221968021
0.603015075376884	0.426102927861877
0.608040201005025	0.426053740966074
0.613065326633166	0.426003982172265
0.618090452261307	0.425953651480451
0.623115577889447	0.42589329522509
0.628140703517588	0.425835928937656
0.633165829145729	0.425699699770459
0.638190954773869	0.4254846077235
0.64321608040201	0.425157069460319
0.648241206030151	0.424669881113948
0.653266331658292	0.423913361771977
0.658291457286432	0.422887511434405
0.663316582914573	0.421549761319123
0.668341708542714	0.419815817347602
0.673366834170854	0.417577244250863
0.678391959798995	0.414834042028904
0.683417085427136	0.411535786111256
0.688442211055276	0.407695398575063
0.693467336683417	0.402983841394122
0.698492462311558	0.397401114568434
0.703517587939699	0.390837078210541
0.708542713567839	0.382584959891819
0.71356783919598	0.372587875293384
0.718592964824121	0.360845824415239
0.723618090452261	0.347337145873572
0.728643216080402	0.332789985443013
0.733668341708543	0.318857298570868
0.738693467336683	0.305539085257136
0.743718592964824	0.293754377018237
0.748743718592965	0.28457520452917
0.753768844221106	0.277607367368614
0.758793969849246	0.27285086553657
0.763819095477387	0.270085003326251
0.768844221105528	0.268485306532985
0.773869346733668	0.267416183635816
0.778894472361809	0.266877634634743
0.78391959798995	0.266472108633817
0.78894472361809	0.266063960828783
0.793969849246231	0.265739909561563
0.798994974874372	0.265499954832157
0.804020100502513	0.265362163677843
0.809045226130653	0.265299915749994
0.814070351758794	0.265266154196681
0.819095477386935	0.265260879017903
0.824120603015075	0.26526113727607
0.829145728643216	0.265256227332583
0.834170854271357	0.265258516102333
0.839195979899497	0.26526800358532
0.844221105527638	0.265310820101622
0.849246231155779	0.265344672167229
0.85427135678392	0.265374226212472
0.85929648241206	0.265399482237354
0.864321608040201	0.265443703309615
0.869346733668342	0.265488815277815
0.874371859296482	0.265534187130645
0.879396984924623	0.265579818868105
0.884422110552764	0.26564489463257
0.889447236180904	0.265794069994361
0.894472361809045	0.265789196132562
0.899497487437186	0.265630273047172
0.904522613065327	0.265270796701978
0.909547738693467	0.264038201994167
0.914572864321608	0.261048350751365
0.919597989949749	0.256301242973571
0.924623115577889	0.246363526274723
0.92964824120603	0.232121908976435
0.934673366834171	0.215986321268601
0.939698492462312	0.197956763151221
0.944723618090452	0.180820427391234
0.949748743718593	0.165337319908423
0.954773869346734	0.152184243434214
0.959798994974874	0.141361197968607
0.964824120603015	0.134829098500393
0.969849246231156	0.130130803758541
0.974874371859296	0.127133275513513
0.979899497487437	0.125836513765309
0.984924623115578	0.125268112473131
0.989949748743719	0.125015015793624
0.994974874371859	0.124961185055164
1	0.125106620257751
